[gd_scene load_steps=3 format=2]

[ext_resource path="res://blokoj/rcentro/scenoj/dialog.tscn" type="PackedScene" id=1]
[ext_resource path="res://kerno/menuo/scenoj/bazo_sceno.tscn" type="PackedScene" id=2]

[node name="ResursoCenter" instance=ExtResource( 2 )]

[node name="Label" parent="." index="0"]
text = "Resurso Center"

[node name="WindowDialog" parent="." index="1" instance=ExtResource( 1 )]
visible = true
